{
  "words": [
    {
      "id": "1",
      "original": "Hello",
      "translated": "Привет"
    },
    {
      "id": "2",
      "original": "Good morning",
      "translated": "Доброе утро"
    },
    {
      "id": "3",
      "original": "Good afternoon",
      "translated": "Добрый день"
    },
    {
      "id": "4",
      "original": "Good night",
      "translated": "Спокойной ночи"
    },
    {
      "id": "5",
      "original": "Good bye",
      "translated": "До свидание"
    },
    {
      "id": "6",
      "original": "Today",
      "translated": "Сегодня"
    },
    {
      "id": "7",
      "original": "Yesterday",
      "translated": "Вчера"
    },
    {
      "id": "8",
      "original": "Tomorrow",
      "translated": "Завтра"
    }
  ]
}
